<svg id="Layer_1" data-name="Layer 1" xmlns="http://www.w3.org/2000/svg" viewBox="0 0 232.39 136.83">
  <title>0_HCNCore_Logo</title>
  <g>
    <path d="M296.22,144.64l-0.53,0h-15.5a0.22,0.22,0,0,1-.19-0.11c-0.63-.86-1.27-1.72-1.9-2.58l-17.36-23.65a1,1,0,0,1-.2-0.84c0.35-2.29.68-4.58,1-6.87q0.46-3.15.94-6.3c0.05-.35.06-0.35,0.41-0.3l10.25,1.49c0.83,0.12,1.65.26,2.48,0.36a0.89,0.89,0,0,1,.67.4c1.09,1.51,2.2,3,3.31,4.52a1.16,1.16,0,0,0,.32.37,0.46,0.46,0,0,0,.07-0.4q0-3.16,0-6.32,0-22.59,0-45.18c0-.76-0.1-0.65.67-0.65h15l0.53,0v0.19a0.7,0.7,0,0,0-.09.59q0,42.27,0,84.55c0,0.13,0,.26,0,0.39a0.24,0.24,0,0,0,.1.21v0.19Z" transform="translate(-63.83 -58.31)" style="fill: #03a9f4"/>
    <path d="M296.22,195.13H273.73c-0.22,0-.34-0.06-0.31-0.3s0-.19,0-0.29q0-9.07,0-18.15c0-.67-0.06-0.58.6-0.58h22.2v4.34a1.21,1.21,0,0,0-.52,0H278.85c-0.4,0-.41,0-0.41.39q0,1.18,0,2.36c0,0.39,0,.4.39,0.4h14.53c0.48,0,.49,0,0.49.46q0,1.69,0,3.38c0,0.37,0,.37-0.37.38H278.72c-0.21,0-.28.07-0.28,0.28,0,0.92,0,1.83,0,2.75a0.25,0.25,0,0,0,.32.3h17a1,1,0,0,0,.48,0v4.34Z" transform="translate(-63.83 -58.31)" style="fill: #03a9f4"/>
    <path d="M63.83,160.57c0.26,0,.51,0,0.77,0H295.37c0.72,0,.75,0,0.67.75a0.21,0.21,0,0,1-.24.23H64.44a2,2,0,0,0-.62,0v-1Z" transform="translate(-63.83 -58.31)" style="fill: #03a9f4"/>
    <path d="M296.22,144.44a0.24,0.24,0,0,1-.1-0.21c0-.13,0-0.26,0-0.39q0-42.27,0-84.55a0.7,0.7,0,0,1,.09-0.59v85.74Z" transform="translate(-63.83 -58.31)" style="fill: #03a9f4"/>
    <path d="M241,91.57v0.61q0,25.75,0,51.51c0,0.79.12,0.68-.69,0.68H225.21c-0.42,0-.42,0-0.42-0.43,0-.1,0-0.19,0-0.29q0-42.36,0-84.72c0-.7-0.09-0.62.61-0.62h15.35a0.69,0.69,0,0,1,.64.3q9.85,13.45,19.72,26.89c0.84,1.14,1.67,2.28,2.52,3.42a0.91,0.91,0,0,1,.18.75c-0.63,4.15-1.23,8.3-1.85,12.45a1.06,1.06,0,0,1-.18.77,1.09,1.09,0,0,1-.75-0.06l-5.67-.84-4.91-.72c-0.7-.1-1.4-0.21-2.1-0.3a0.79,0.79,0,0,1-.56-0.4l-4-5.49-2.37-3.23-0.26-.33Z" transform="translate(-63.83 -58.31)" style="fill: #03a9f4"/>
    <path d="M138.71,101.63q0,18,0,36,0,3.26,0,6.51c0,0.08,0,.16,0,0.24a0.2,0.2,0,0,1-.24.23H122.72a0.22,0.22,0,0,1-.25-0.26c0-.13,0-0.26,0-0.39q0-10.79,0-21.57a1.18,1.18,0,0,0-.38-0.93q-9.75-9.73-19.49-19.48c-0.42-.42-0.42-0.42,0-0.83q9.74-9.74,19.49-19.48a1.18,1.18,0,0,0,.39-0.92q0-10.81,0-21.62c0-.68,0-0.6.6-0.6h15.2c0.42,0,.42,0,0.43.43,0,0,0,.1,0,0.14v42.52h0Z" transform="translate(-63.83 -58.31)" style="fill: #03a9f4"/>
    <path d="M64,101.58q0-18,0-36.05,0-3.21,0-6.42c0-.11,0-0.23,0-0.34a0.2,0.2,0,0,1,.23-0.23H80a0.21,0.21,0,0,1,.26.26c0,0.13,0,.26,0,0.39q0,10.79,0,21.57a1.18,1.18,0,0,0,.38.93q9.76,9.73,19.49,19.48c0.48,0.48.48,0.36,0,.83q-9.74,9.75-19.49,19.48a1.18,1.18,0,0,0-.38.92q0,10.81,0,21.62c0,0.66.08,0.59-.59,0.59H64.57c-0.62,0-.57.08-0.57-0.56q0-21.24,0-42.47h0Z" transform="translate(-63.83 -58.31)" style="fill: #03a9f4"/>
    <path d="M153.13,100.86v-0.52q0-20.61,0-41.22c0-.6-0.12-0.59.6-0.59h55.46c0.7,0,.62-0.09.62,0.61q0,7.51,0,15c0,0.1,0,.19,0,0.29s-0.05.34-.29,0.31-0.26,0-.39,0H173.08c-0.73,0-.63-0.09-0.63.65,0,1.93,0,3.86,0,5.79a0.91,0.91,0,0,1-.29.72l-18.64,18.63A1.06,1.06,0,0,1,153.13,100.86Z" transform="translate(-63.83 -58.31)" style="fill: #03a9f4"/>
    <path d="M153.13,102.55a1.17,1.17,0,0,1,.43.34q9.27,9.27,18.54,18.53a1.12,1.12,0,0,1,.35.89c0,1.83,0,3.67,0,5.5,0,0.11,0,.23,0,0.34a0.21,0.21,0,0,0,.26.25h36.5c0.71,0,.61-0.08.61,0.62q0,7.53,0,15.06c0,0.6.05,0.54-.55,0.54H153.9c-0.77,0-.77,0-0.77-0.76V102.55Z" transform="translate(-63.83 -58.31)" style="fill: #03a9f4"/>
    <path d="M147.56,175.83h7.14a6,6,0,0,1,3.62,1.11,5.46,5.46,0,0,1,2.4,4.6c0,2.62,0,5.25,0,7.87a5.72,5.72,0,0,1-5,5.64,12,12,0,0,1-1.3.08c-4.68,0-9.36,0-14,0a5.86,5.86,0,0,1-5.3-3,5.14,5.14,0,0,1-.66-2.68c0-2.62,0-5.25,0-7.87a5.7,5.7,0,0,1,4.07-5.44,6.87,6.87,0,0,1,2-.28h7.1Zm0,4.3h-5.5c-0.19,0-.39,0-0.58,0a2.25,2.25,0,0,0-2.06,2.23c0,2.06,0,4.12,0,6.18a2.24,2.24,0,0,0,1.48,2.11,3.05,3.05,0,0,0,1.09.15h11.05a4.52,4.52,0,0,0,.63,0,2.22,2.22,0,0,0,2-2.25c0-2.08,0-4.15,0-6.23a2,2,0,0,0-.57-1.44,2.26,2.26,0,0,0-1.76-.75h-5.74Z" transform="translate(-63.83 -58.31)" style="fill: #03a9f4"/>
    <path d="M229.41,195.14h-5.36a0.67,0.67,0,0,1-.61-0.28c-1.69-2.15-3.4-4.28-5.09-6.43a0.77,0.77,0,0,0-.69-0.33H209.9a0.22,0.22,0,0,0-.25.26c0,0.11,0,.23,0,0.34q0,2.9,0,5.79c0,0.11,0,.23,0,0.34s-0.09.31-.31,0.3h-4.39c-0.24,0-.37-0.06-0.34-0.32a2.51,2.51,0,0,0,0-.29v-18.1c0-.1,0-0.19,0-0.29s0.06-.34.3-0.31h17.81a6.53,6.53,0,0,1,5,2.23,5.87,5.87,0,0,1-.33,8.18,6.68,6.68,0,0,1-3.49,1.74l-0.24,0a0.11,0.11,0,0,0-.06.18c0.07,0.1.16,0.2,0.24,0.3l5.31,6.25A0.71,0.71,0,0,1,229.41,195.14Zm-13.19-11.26h5.89a3.91,3.91,0,0,0,.58,0,1.7,1.7,0,0,0,1.43-1.15,1.84,1.84,0,0,0-.3-1.9,1.92,1.92,0,0,0-1.59-.66H210c-0.23,0-.35,0-0.35.32,0,1,0,2.09,0,3.14a0.25,0.25,0,0,0,.32.29h6.23Z" transform="translate(-63.83 -58.31)" style="fill: #03a9f4"/>
    <path d="M77.55,175.83H84.4a6.08,6.08,0,0,1,3.07.71,5.56,5.56,0,0,1,3,4,12.59,12.59,0,0,1,.07,2c0,0.22-.14.22-0.29,0.22H85.86c-0.38,0-.41,0-0.39-0.35a2.29,2.29,0,0,0-2.27-2.22q-5.6,0-11.2,0a2.38,2.38,0,0,0-2.39,2.41q0.08,2.92,0,5.84a2.38,2.38,0,0,0,2.44,2.46c3.23,0,6.47,0,9.7,0,0.5,0,1,0,1.5,0a2.28,2.28,0,0,0,2-1.21,2,2,0,0,0,.25-1c0-.34,0-0.35.35-0.35H90.2c0.16,0,.28,0,0.29.22a6.42,6.42,0,0,1-.6,3.52,5.85,5.85,0,0,1-4.4,3,10,10,0,0,1-1.44.09c-4.51,0-9,0-13.51,0a5.86,5.86,0,0,1-5.22-2.93,4.76,4.76,0,0,1-.71-2.52c0-2.8,0-5.6,0-8.4a5.38,5.38,0,0,1,3.06-4.75,5.84,5.84,0,0,1,2.92-.7h7Z" transform="translate(-63.83 -58.31)" style="fill: #03a9f4"/>
  </g>
</svg>
